{
  "version": "14.0.0",
  "vulnerabilities": [
    {
      "id": "9402f7208961b347307c877749c25fbcd3a0444cccfee5fcb876008baf85328d",
      "category": "sast",
      "name": "express_xss",
      "message": "Untrusted User Input in Response will result in Reflected Cross Site Scripting Vulnerability.",
      "description": "Untrusted User Input in Response will result in Reflected Cross Site Scripting Vulnerability.",
      "cve": "index.js:28:express_xss:CWE-79",
      "severity": "High",
      "scanner": {
        "id": "nodejs-scan",
        "name": "NodeJsScan"
      },
      "location": {
        "file": "index.js",
        "start_line": 28,
        "end_line": 28
      },
      "identifiers": [
        {
          "type": "njsscan_rule_type",
          "name": "express_xss",
          "value": "Untrusted User Input in Response will result in Reflected Cross Site Scripting Vulnerability."
        },
        {
          "type": "cwe",
          "name": "CWE-79",
          "value": "express_xss"
        }
      ]
    },
    {
      "id": "9703341c0c5e5e97eb4087119333971b96a3d1bf63c73520d8552b34db1437f9",
      "category": "sast",
      "name": "express_xss",
      "message": "Untrusted User Input in Response will result in Reflected Cross Site Scripting Vulnerability.",
      "description": "Untrusted User Input in Response will result in Reflected Cross Site Scripting Vulnerability.",
      "cve": "index.js:32:express_xss:CWE-79",
      "severity": "High",
      "scanner": {
        "id": "nodejs-scan",
        "name": "NodeJsScan"
      },
      "location": {
        "file": "index.js",
        "start_line": 32,
        "end_line": 32
      },
      "identifiers": [
        {
          "type": "njsscan_rule_type",
          "name": "express_xss",
          "value": "Untrusted User Input in Response will result in Reflected Cross Site Scripting Vulnerability."
        },
        {
          "type": "cwe",
          "name": "CWE-79",
          "value": "express_xss"
        }
      ]
    },
    {
      "id": "f159bf926f71515c21cee718e26a6a90ae5a8c8387e5ca1729dd391fcc9f8ca8",
      "category": "sast",
      "name": "express_open_redirect",
      "message": "Untrusted user input in redirect() can result in Open Redirect vulnerability.",
      "description": "Untrusted user input in redirect() can result in Open Redirect vulnerability.",
      "cve": "index.js:46:express_open_redirect:CWE-601",
      "severity": "High",
      "scanner": {
        "id": "nodejs-scan",
        "name": "NodeJsScan"
      },
      "location": {
        "file": "index.js",
        "start_line": 46,
        "end_line": 46
      },
      "identifiers": [
        {
          "type": "njsscan_rule_type",
          "name": "express_open_redirect",
          "value": "Untrusted user input in redirect() can result in Open Redirect vulnerability."
        },
        {
          "type": "cwe",
          "name": "CWE-601",
          "value": "express_open_redirect"
        }
      ]
    },
    {
      "id": "ceea95ac955f2a5c7cb762d450c486cf39aac504423c556d00c13f6cdddee6d0",
      "category": "sast",
      "name": "pug_jade_template",
      "message": "The Pug.js/Jade.js template has an unescaped variable. Untrusted user input passed to this variable results in Cross Site Scripting (XSS).",
      "description": "The Pug.js/Jade.js template has an unescaped variable. Untrusted user input passed to this variable results in Cross Site Scripting (XSS).",
      "cve": "pug.pug:1:pug_jade_template:CWE-79",
      "severity": "High",
      "scanner": {
        "id": "nodejs-scan",
        "name": "NodeJsScan"
      },
      "location": {
        "file": "pug.pug",
        "start_line": 1,
        "end_line": 1
      },
      "identifiers": [
        {
          "type": "njsscan_rule_type",
          "name": "pug_jade_template",
          "value": "The Pug.js/Jade.js template has an unescaped variable. Untrusted user input passed to this variable results in Cross Site Scripting (XSS)."
        },
        {
          "type": "cwe",
          "name": "CWE-79",
          "value": "pug_jade_template"
        }
      ]
    },
    {
      "id": "0ec759bb03f5469579244355327a5f0f940c8c1b93a0f51115bdc8681301d655",
      "category": "sast",
      "name": "express_xss",
      "message": "Untrusted User Input in Response will result in Reflected Cross Site Scripting Vulnerability.",
      "description": "Untrusted User Input in Response will result in Reflected Cross Site Scripting Vulnerability.",
      "cve": "subdir/index.js:28:express_xss:CWE-79",
      "severity": "High",
      "scanner": {
        "id": "nodejs-scan",
        "name": "NodeJsScan"
      },
      "location": {
        "file": "subdir/index.js",
        "start_line": 28,
        "end_line": 28
      },
      "identifiers": [
        {
          "type": "njsscan_rule_type",
          "name": "express_xss",
          "value": "Untrusted User Input in Response will result in Reflected Cross Site Scripting Vulnerability."
        },
        {
          "type": "cwe",
          "name": "CWE-79",
          "value": "express_xss"
        }
      ]
    },
    {
      "id": "83b8d8b9852e9fdc4ab9f71282c6c32f65b977defc6c0ddbd260d8382f3fd8a9",
      "category": "sast",
      "name": "express_xss",
      "message": "Untrusted User Input in Response will result in Reflected Cross Site Scripting Vulnerability.",
      "description": "Untrusted User Input in Response will result in Reflected Cross Site Scripting Vulnerability.",
      "cve": "subdir/index.js:32:express_xss:CWE-79",
      "severity": "High",
      "scanner": {
        "id": "nodejs-scan",
        "name": "NodeJsScan"
      },
      "location": {
        "file": "subdir/index.js",
        "start_line": 32,
        "end_line": 32
      },
      "identifiers": [
        {
          "type": "njsscan_rule_type",
          "name": "express_xss",
          "value": "Untrusted User Input in Response will result in Reflected Cross Site Scripting Vulnerability."
        },
        {
          "type": "cwe",
          "name": "CWE-79",
          "value": "express_xss"
        }
      ]
    },
    {
      "id": "3dfc4de144132fc12cfc1be98cf10285c200fc06363740ea1202f4e95f1d8477",
      "category": "sast",
      "name": "express_open_redirect",
      "message": "Untrusted user input in redirect() can result in Open Redirect vulnerability.",
      "description": "Untrusted user input in redirect() can result in Open Redirect vulnerability.",
      "cve": "subdir/index.js:46:express_open_redirect:CWE-601",
      "severity": "High",
      "scanner": {
        "id": "nodejs-scan",
        "name": "NodeJsScan"
      },
      "location": {
        "file": "subdir/index.js",
        "start_line": 46,
        "end_line": 46
      },
      "identifiers": [
        {
          "type": "njsscan_rule_type",
          "name": "express_open_redirect",
          "value": "Untrusted user input in redirect() can result in Open Redirect vulnerability."
        },
        {
          "type": "cwe",
          "name": "CWE-601",
          "value": "express_open_redirect"
        }
      ]
    }
  ],
  "remediations": [],
  "scan": {
    "scanner": {
      "id": "njsscan",
      "name": "njsscan",
      "url": "https://github.com/ajinabraham/njsscan",
      "vendor": {
        "name": "GitLab"
      },
      "version": "0.2.8"
    },
    "type": "sast",
    "start_time": "2021-08-11T19:07:29",
    "end_time": "2021-08-11T19:07:51",
    "status": "success"
  }
}
