{
  "errors": [],
  "nodejs": {
    "express_open_redirect": {
      "files": [
        {
          "file_path": "index.js",
          "match_lines": [
            46,
            46
          ],
          "match_position": [
            3,
            58
          ],
          "match_string": "  res.redirect('http://example.com:3000/' + req.vhost[0]);"
        }
      ],
      "metadata": {
        "cwe": "CWE-601: URL Redirection to Untrusted Site ('Open Redirect')",
        "description": "Untrusted user input in redirect() can result in Open Redirect vulnerability.",
        "owasp": "A1: Injection",
        "severity": "ERROR"
      }
    },
    "express_xss": {
      "files": [
        {
          "file_path": "index.js",
          "match_lines": [
            28,
            28
          ],
          "match_position": [
            3,
            42
          ],
          "match_string": "  res.send('requested ' + req.params.sub);"
        },
        {
          "file_path": "index.js",
          "match_lines": [
            32,
            32
          ],
          "match_position": [
            3,
            42
          ],
          "match_string": "  res.send('requested ' + req.params.sub);"
        }
      ],
      "metadata": {
        "cwe": "CWE-79: Improper Neutralization of Input During Web Page Generation ('Cross-site Scripting')",
        "description": "Untrusted User Input in Response will result in Reflected Cross Site Scripting Vulnerability.",
        "owasp": "A1: Injection",
        "severity": "ERROR"
      }
    }
  },
  "templates": {
    "pug_jade_template": {
      "files": [
        {
          "file_path": "pug.pug",
          "match_lines": [
            1,
            1
          ],
          "match_position": [
            18,
            24
          ],
          "match_string": "!{'}'}"
        }
      ],
      "metadata": {
        "cwe": "CWE-79: Improper Neutralization of Input During Web Page Generation ('Cross-site Scripting')",
        "description": "The Pug.js/Jade.js template has an unescaped variable. Untrusted user input passed to this variable results in Cross Site Scripting (XSS).",
        "id": "pug_jade_template",
        "input_case": "exact",
        "owasp": "A1: Injection",
        "pattern": "!{.+}",
        "severity": "ERROR",
        "type": "Regex"
      }
    }
  }
}
